<svg width="12" height="12" viewBox="0 0 12 12" fill="none" xmlns="http://www.w3.org/2000/svg">
<path d="M5.36994 0.666105C5.59558 -0.0586234 6.57561 -0.0586234 6.8005 0.666105L7.60528 3.25656C7.65444 3.41432 7.75002 3.55178 7.87835 3.6493C8.00668 3.74681 8.16119 3.79939 8.3198 3.79951H10.9237C11.6525 3.79951 11.9549 4.77526 11.3659 5.22379L9.25996 6.82433C9.13137 6.92193 9.03562 7.05962 8.98644 7.21766C8.93726 7.3757 8.93717 7.54598 8.98619 7.70407L9.79097 10.2945C10.0166 11.0193 9.22311 11.6228 8.63269 11.1743L6.52672 9.57373C6.39826 9.47616 6.24359 9.42361 6.08484 9.42361C5.9261 9.42361 5.77143 9.47616 5.64297 9.57373L3.537 11.1743C2.94733 11.6228 2.15458 11.0193 2.37947 10.2945L3.18425 7.70407C3.23327 7.54598 3.23318 7.3757 3.184 7.21766C3.13482 7.05962 3.03907 6.92193 2.91047 6.82433L0.805259 5.22457C0.21634 4.77605 0.519449 3.8003 1.24751 3.8003H3.85064C4.00937 3.80034 4.16405 3.74784 4.29253 3.65032C4.42101 3.55279 4.51671 3.41523 4.56591 3.25734L5.3707 0.666892L5.36994 0.666105Z" fill="#F2D747"/>
</svg>
